{
  "components": [
    {
      "label": "Columns",
      "columns": [
        {
          "components": [
            {
              "label": "Internships.Subject",
              "spellcheck": true,
              "tableView": true,
              "validate": {
                "unique": false,
                "multiple": false
              },
              "key": "subjectName",
              "type": "textfield",
              "input": true,
              "hideOnChildrenHidden": false
            }
          ],
          "width": 6
        },
        {
          "components": [
            {
              "label": "Internships.Student",
              "spellcheck": true,
              "tableView": true,
              "validate": {
                "unique": false,
                "multiple": false
              },
              "key": "studentName",
              "type": "textfield",
              "input": true,
              "hideOnChildrenHidden": false
            }
          ],
          "width": 6
        }
      ],
      "tableView": false,
      "key": "department",
      "type": "columns",
      "input": false,
      "path": "columns"
    },
    {
      "label": "Columns",
      "columns": [
        {
          "components": [
            {
              "label": "Internships.YearAlternateName",
              "widget": "choicesjs",
              "dataSrc": "url",
              "data": {
                "url": "AcademicYears?$orderby=id desc",
                "headers": []
              },
              "selectThreshold": 0.3,
              "validate": {
                "unique": false,
                "multiple": false
              },
              "template": "<span class='d-block pr-5 text-truncate'>{{ item.name }}</span>",
              "key": "academicYear",
              "valueProperty": "id",
              "selectValues": "value",
              "type": "select",
              "input": true,
              "hideOnChildrenHidden": false,
              "disableLimit": false,
              "lazyLoad": false
            }
          ],
          "width": 3
        },
        {
          "components": [
            {
              "label": "Internships.InternshipPeriodAlternateName",
              "widget": "choicesjs",
              "dataSrc": "url",
              "data": {
                "url": "AcademicPeriods?$orderby=name",
                "headers": []
              },
              "selectThreshold": 0.3,
              "validate": {
                "unique": false,
                "multiple": false
              },
              "template": "<span class='d-block pr-5 text-truncate'>{{ item.name }}</span>",
              "key": "academicPeriod",
              "valueProperty": "alternateName",
              "selectValues": "value",
              "type": "select",
              "input": true,
              "hideOnChildrenHidden": false,
              "disableLimit": false,
              "lazyLoad": false
            }
          ],
          "width": 3
        },
        {
          "components": [
            {
              "label": "Internships.StartedAfter",
              "labelPosition": "top",
              "format": "dd/MM/yyyy",
              "enableTime": false,
              "widget": {
                "type": "calendar",
                "format": "dd/MM/yyyy"
              },
              "key": "startedAfter",
              "type": "datetime",
              "input": true,
              "hideOnChildrenHidden": false
            }
          ],
          "width": 3
        },
        {
          "components": [
            {
              "label": "Internships.StartedBefore",
              "labelPosition": "top",
              "format": "dd/MM/yyyy",
              "enableTime": false,
              "widget": {
                "type": "calendar",
                "format": "dd/MM/yyyy"
              },
              "key": "startedBefore",
              "type": "datetime",
              "input": true,
              "hideOnChildrenHidden": false
            }
          ],
          "width": 3
        }
     ,
    {
      "components": [
        {
          "label": "Internships.Company",
          "widget": "choicesjs",
          "dataSrc": "url",
          "data": {
            "url": "Companies?$top={{limit}}&$skip={{skip}}&$select=id,name&$filter=indexof(name, '{{encodeURIComponent(search||'')}}') ge 0&$orderby=name",
            "headers": []
          },
          "lazyLoad": false,
          "searchField": "search",
          "searchEnabled": true,
          "selectThreshold": 1,
          "customClass": "formio-component-select-wrap",
          "limit": 15,
          "idPath": "id",
          "template": "{{ item.name }}",
          "key": "company",
          "type": "select",
          "selectValues": "value",
          "input": true
        }
      ],
      "width": 3
    } ],
      "tableView": false,
      "key": "columns1",
      "type": "columns",
      "input": false,
      "path": "columns1"
    }
  ]
}
