{
  "model": "EnrollmentActionStatusArticles",
  "settings": {
    "i18n": {
      "el": {
        "Title": "Τίτλος",
        "Set the title of this article": "Ορίστε τον τίτλο του άρθρου",
        "Set a Language that is going to be used by the element": "Ορίστε τη γλώσσα στην οποία πρόκειται να χρησιμοποιηθεί αυτό το άρθρο",
        "Set the status of the request that this article refers to": "Ορίστε την κατάσταση της αίτησης στην οποία αναφέρεται αυτό το άρθρο"
      }
    }
  },
  "components": [
    {
      "type": "fieldset",
      "legend": "New item",
      "components": [
        {
          "label": "HTML",
          "tag": "h5",
          "className": "font-weight-normal",
          "content": "{{form.subtitle}}",
          "refreshOnChange": false,
          "tableView": false,
          "key": "subtitle",
          "type": "htmlelement",
          "input": false
        },
        {
          "columns": [
            {
              "components": [
                {
                  "label": "Title",
                  "labelPosition": "top",
                  "widget": {
                    "type": "input"
                  },
                  "validate": {
                    "required": true
                  },
                  "key": "name",
                  "type": "textfield",
                  "input": true,
                  "disabled": false,
                  "description": "Set the title of this article"
                }
              ],
              "width": 6
            },

            {
              "components": [
                {
                  "label": "In Language",
                  "labelPosition": "top",
                  "data": {
                    "values": [
                      {
                        "label": "Ελληνικά",
                        "value": "el"
                      },
                      {
                        "label": "English",
                        "value": "en"
                      }
                    ]
                  },
                  "widget": "choicesjs",
                  "validate": {
                    "required": true
                  },
                  "key": "inLanguage",
                  "type": "select",
                  "searchEnabled": false,
                  "input": true,
                  "description": "Set a Language that is going to be used by the element"
                }
              ],
              "width": 6
            },
            {
              "components": [
                {
                  "label": "Status",
                  "widget": "choicesjs",
                  "dataSrc": "url",
                  "data": {
                    "url": "ActionStatusTypes?$filter=(alternateName eq  'CompletedActionStatus' or alternateName eq  'CancelledActionStatus' or alternateName eq  'ActiveActionStatus' or alternateName eq  'PotentialActionStatus')",
                    "headers": []
                  },
                  "selectThreshold": 0.3,
                  "validate": {
                    "unique": false,
                    "multiple": false,
                    "required": true
                  },
                  "template": "{{ item.alternateName }}",
                  "key": "actionStatus",
                  "selectValues": "value",
                  "type": "select",
                  "input": true,
                  "hideOnChildrenHidden": false,
                  "disableLimit": false,
                  "lazyLoad": false,
                  "description": "Set the status of the request that this article refers to"
                }
              ],
              "width": 6,
              "offset": 0,
              "push": 0,
              "pull": 0
            },
            {
              "components": [
                {
                  "label": "Body",
                  "hideLabel": true,
                  "autoExpand": false,
                  "spellcheck": true,
                  "tableView": true,
                  "key": "articleBody",
                  "type": "textarea",
                  "wysiwyg": true,
                  "rows": 10,
                  "input": true,
                  "validate": {
                    "unique": false,
                    "multiple": false
                  }

                }
              ],
              "width": 12
            }
          ],
          "customClass": "text-dark",
          "hideLabel": true,
          "type": "columns",
          "input": false
        }
      ]
    },
    {
      "type": "button",
      "label": "Submit",
      "key": "submit",
      "disableOnInvalid": true,
      "input": true
    }
  ]
}
