{
    "title": "Students.Active",
    "model": "Students",
    "searchExpression":"indexof(studentIdentifier, '${text}') ge 0 or indexof(person/familyName, '${text}') ge 0 or indexof(person/givenName, '${text}') ge 0 or indexof(user/name, '${text}') ge 0 or indexof(studyProgram/name, '${text}') ge 0 or indexof(studentStatus/name, '${text}') ge 0 or indexof(uniqueIdentifier, '${text}') ge 0",
    "selectable": true,
    "multipleSelect": true,
    "columns": [
      {
        "name":"id",
        "property": "id",
        "placeholder": "Registrations.Actions",
        "formatter": "ActionLinkFormatter",
        "actions" : [
          {
            "title": "Students.Preview",
            "href": "#/students/${id}/dashboard"
          },
          {
            "title": "Registrations.PreviewRegistrations",
            "href": "#/students/${id}/dashboard/registrations"
          },
          {
            "title": "Students.PreviewStudyProgram",
            "href": "#/study-programs/${studyProgramId}/preview/general"
          },
          {
            "title": "Students.PreviewStudentCourses",
            "href": "#/students/${id}/dashboard/courses",
            "role": "action"
          },
          {
            "title": "Students.Edit",
            "href": "#/students/${id}/edit"
          }
        ]
      },
      {
        "name":"studyProgram",
        "property": "studyProgramId",
        "title": "Registrations.StudyProgramId",
        "hidden": true
      },
      {
        "name":"studyProgramSpecialty",
        "property": "studyProgramSpecialtyId",
        "title": "Registrations.StudyProgramSpecialtyId",
        "hidden": true
      },
      {
        "name":"studentIdentifier",
        "property": "studentIdentifier",
        "title":"Students.studentIdentifier"
      },
      {
        "name":"person/familyName",
        "property": "familyName",
        "title":"Students.fullName",
        "formatter": "TemplateFormatter",
        "formatString": "${familyName} ${givenName}"
      },
      {
        "name":"person/givenName",
        "property": "givenName",
        "title":"Registrations.StudentGivenName",
        "hidden": true
      },
      {
        "name":"studyProgram/abbreviation",
        "property": "studyProgram",
        "title":"Students.studyProgram"
      },
      {
        "name":"studyProgramSpecialty/abbreviation",
        "property": "studyProgramSpecialty",
        "title":"Students.Specialty"
      },
      {
        "name":"semester",
        "property": "semester",
        "title":"Students.semester"
      },
      {
        "name":"studentStatus/alternateName",
        "property": "studentStatus",
        "title":"Students.studentStatus",
        "hidden": true
      }
    ],
    "criteria": [
      {
        "name": "studentIdentifier",
        "filter": "(studentIdentifier eq '${value}')",
        "type": "text"
      },
      {
        "name": "studentName",
        "filter": "(indexof(person/familyName, '${value}') ge 0 or indexof(person/givenName, '${value}') ge 0)",
        "type": "text"
      },
      {
        "name": "username",
        "filter": "(indexof(user/name, '${value}') ge 0)",
        "type": "text"
      },
      {
        "name": "studyProgram",
        "filter": "(studyProgram eq ${value})",
        "type": "text"
      },
      {
        "name": "studyProgramSpecialty",
        "filter": "(studyProgramSpecialty eq '${value.id}')",
        "type": "text"
      },
      {
        "name": "inscriptionMode",
        "filter": "(inscriptionMode/id eq '${value}')",
        "type": "text"
      },
      {
        "name": "inscriptionYear",
        "filter": "(inscriptionYear/id eq '${value}')",
        "type": "text"
      },
      {
        "name": "inscriptionPeriod",
        "filter": "(inscriptionPeriod/id eq '${value}')",
        "type": "text"
      },
      {
        "name": "semester",
        "filter": "(semester eq '${value}')",
        "type": "text"
      }
    ]
  }
  