{
  "title": "Instructors.All",
  "model": "Instructors",
  "searchExpression":"indexof(department/name, '${text}') ge 0 or indexof(category, '${text}') ge 0 or indexof(familyName, '${text}') ge 0 or indexof(givenName, '${text}') ge 0 or indexof(email, '${text}') ge 0 or indexof(instructorCode, '${text}') ge 0",
  "selectable": true,
  "multipleSelect": true,
  "columns": [
    {
      "name":"id",
      "property": "id",
      "placeholder": "Instructors.Actions",
      "formatter": "ActionLinkFormatter",
      "actions" : [
        {
          "title": "Instructors.Preview",
          "href": "#/instructors/${id}/dashboard",
          "role": "preview"
        },
        {
          "title": "Instructors.Edit",
          "href": "#/instructors/${id}/edit",
          "role": "edit"
        },
        {
          "title": "Reports.Print",
          "href": "#/instructors/${id}/dashboard/overview/(modal:print)",
          "role": "action"
        },
        {
          "title": "Instructors.DeleteInstructor.Description",
          "invoke": "deleteInsructor",
          "role": "method",
          "href": "#/instructors/${id}/"
        }  
      ],
      "sortable": false
    },
    {
      "name": "familyName",
      "property": "familyName",
      "title":"Instructors.FullName",
      "formatter": "TemplateFormatter",
      "formatString": "${familyName} ${givenName}"
    },
    {
      "name":"givenName",
      "property": "givenName",
      "title":"Instructors.GivenName",
      "hidden": true
    },
    {
      "name":"department/name",
      "property": "departmentName",
      "title":"Instructors.Department"
    },
    {
      "name":"category",
      "property":"category",
      "title":"Instructors.Category"
    },
    {
      "name":"email",
      "property":"email",
      "title":"Instructors.Email"
    },
    {
      "name":"workPhone",
      "property":"workphone",
      "title":"Instructors.WorkPhone"
    },
    {
      "name": "user",
      "property": "user",
      "title": "Instructors.UserNumber",
      "hidden": true
    },
    {
      "name": "user/name",
      "property": "username",
      "title": "Instructors.UserName",
      "hidden": true,
      "optional": true
    },
    {
      "name": "title",
      "property": "title",
      "title": "Instructors.InstructorTitle",
      "hidden": true,
      "optional": true
    },
    {
      "name": "middleName",
      "property": "middleName",
      "title": "Instructors.MiddleName",
      "hidden": true,
      "optional": true
    },
    {
      "name": "gender/name",
      "property": "gender",
      "title": "Instructors.Gender",
      "hidden": true,
      "optional": true
    },
    {
      "name": "personCode",
      "property": "personCode",
      "title": "Instructors.PersonCode",
      "hidden": true,
      "optional": true
    },
    {
      "name": "status/name",
      "property": "status",
      "title": "Instructors.Status",
      "hidden": true,
      "optional": true
    },
    {
      "name": "isTeaching",
      "property": "isTeaching",
      "title": "Instructors.IsTeaching",
      "formatter": "TrueFalseFormatter",
      "hidden": true,
      "optional": true
    },
    {
      "name": "specialty",
      "property": "specialty",
      "title": "Instructors.Specialty",
      "hidden": true,
      "optional": true
    },
    {
      "name": "homeAddress",
      "property": "homeAddress",
      "title": "Instructors.HomeAddress",
      "hidden": true,
      "optional": true
    },
    {
      "name": "homePostalCode",
      "property": "homePostalCode",
      "title": "Instructors.HomePostalCode",
      "hidden": true,
      "optional": true
    },
    {
      "name": "homeCity",
      "property": "homeCity",
      "title": "Instructors.HomeCity",
      "hidden": true,
      "optional": true
    },
    {
      "name": "country/name",
      "property": "country",
      "title": "Instructors.Country",
      "hidden": true,
      "optional": true
    },
    {
      "name": "homePhone",
      "property": "homePhone",
      "title": "Instructors.HomePhone",
      "hidden": true,
      "optional": true
    },
    {
      "name": "workAddress",
      "property": "workAddress",
      "title": "Instructors.WorkAddress",
      "hidden": true,
      "optional": true
    },
    {
      "name": "workPostalCode",
      "property": "workPostalCode",
      "title": "Instructors.WorkPostalCode",
      "hidden": true,
      "optional": true
    },
    {
      "name": "workCity",
      "property": "workCity",
      "title": "Instructors.WorkCity",
      "hidden": true,
      "optional": true
    },
    {
      "name": "workCountry/name",
      "property": "workCountry",
      "title": "Instructors.WorkCountry",
      "hidden": true,
      "optional": true
    },
    {
      "name": "fax",
      "property": "fax",
      "title": "Instructors.Fax",
      "hidden": true,
      "optional": true
    },
    {
      "name": "url",
      "property": "url",
      "title": "Instructors.Url",
      "hidden": true,
      "optional": true
    },
    {
      "name": "instructorCode",
      "property": "instructorCode",
      "title": "Instructors.InstructorCode",
      "hidden": true,
      "optional": true
    },
    {
      "name": "dateModified",
      "property": "dateModified",
      "title": "Instructors.DateModified",
      "formatter": "DateTimeFormatter",
      "formatString": "shortDate",
      "hidden": true,
      "optional": true
    },
    {
      "name": "person/SSN",
      "property": "SSN",
      "title": "Instructors.Person.SSN",
      "hidden": true,
      "optional": true
    },
    {
      "name": "person/identityCard",
      "property": "identityCard",
      "title": "Instructors.Person.IdentityCard",
      "hidden": true,
      "optional": true
    },
    {
      "name": "person/identityAuthority",
      "property": "identityAuthority",
      "title": "Instructors.Person.IdentityAuthority",
      "hidden": true,
      "optional": true
    },
    {
      "name": "person/SSNCountry/name",
      "property": "SSNCountry",
      "title": "Instructors.Person.SSNCountry",
      "hidden": true,
      "optional": true
    },
    {
      "name": "person/birthDate",
      "property": "birthDate",
      "title": "Instructors.Person.BirthDate",
      "formatter": "DateTimeFormatter",
      "formatString": "shortDate",
      "hidden": true,
      "optional": true
    },
    {
      "name": "person/alternateEmail",
      "property": "alternateEmail",
      "title": "Instructors.Person.AlternateEmail",
      "hidden": true,
      "optional": true
    },
    {
      "name": "person/vatNumber",
      "property": "vatNumber",
      "title": "Instructors.Person.VatNumber",
      "hidden": true,
      "optional": true
    },
    {
      "name":"person/vatOffice",
      "property":"vatOffice",
      "title":"Instructors.Person.VatOffice",
      "hidden":true,
      "optional":true
    },
    {
      "name": "person/notes",
      "property": "notes",
      "title": "Instructors.Person.Notes",
      "hidden": true,
      "optional": true
    }
  ],
  "defaults":{
    "filter": "",
    "orderBy": "dateModified desc"
  },
  "criteria": [
    {
      "name": "instructorName",
      "filter": "(indexof(familyName, '${value}') ge 0 or indexof(givenName, '${value}') ge 0)",
      "type": "text"
    },
    {
      "name": "departmentName",
      "filter": "(indexof(department/name, '${value}') ge 0)",
      "type": "text"
    },
    {
      "name": "category",
      "filter": "(indexof(category, '${value}') ge 0)",
      "type": "text"
    },
    {
      "name": "status",
      "filter": "(status eq '${value}')",
      "type": "text"
    },
    {
      "name": "email",
      "filter": "(indexof(email, '${value}') ge 0)",
      "type": "text"
    },
    {
      "name": "hasUser",
      "filter": "${value >=1 ? '(user ne null)': '(user eq null)'}",
      "type": "text"
    }
  ],
  "paths" : [
    {
      "name": "Instructors.CurrentDepartment",
      "alternateName": "list/currentDepartment",
      "show": true,
      "filter": {
        "status": "active"
      }
    },
    {
      "name": "Instructors.All",
      "alternateName": "list/index",
      "show": true,
      "filter": { }
    }
  ]
}
