{
  "components": [
    {
      "label": "Columns",
      "columns": [
        {
          "components": [
            {
              "label": "Instructors.FullName",
              "spellcheck": true,
              "tableView": true,
              "validate": {
                "unique": false,
                "multiple": false
              },
              "key": "instructorName",
              "type": "textfield",
              "input": true,
              "hideOnChildrenHidden": false
            }
          ],
          "width": 6,
          "offset": 0,
          "push": 0,
          "pull": 0
        },
        {
          "components": [
            {
              "label": "Instructors.Status",
              "labelPosition": "top",
              "widget": "choicesjs",
              "searchEnabled": false,
              "template": "<span class='d-block pr-5 text-truncate'>{{ item.name }}</span>",
              "type": "select",
              "input": true,
              "dataSrc": "url",
              "data": {
                "url": "InstructorStatuses/?$select=id,name,alternateName",
                "headers": []
              },
              "key": "status",
              "valueProperty": "id",
              "selectValues": "value",
              "lazyLoad": false
            }
          ],
          "width": 6,
          "offset": 0,
          "push": 0,
          "pull": 0
        }
      ],
      "tableView": false,
      "key": "department",
      "type": "columns",
      "input": false,
      "path": "columns"
    },
    {
      "label": "Columns",
      "columns": [
        {
          "components": [
            {
              "label": "Instructors.Category",
              "labelPosition": "top",
              "widget": {
                "type": "input"
              },
              "dataSrc": "url",
              "data": {
                  "url": "Instructors?$filter=category ne null&$select=category&$groupby=category&$top=-1",
                  "headers": []
              },
              "template": "<span class='d-block pr-5 text-truncate'>{{ item.category }}</span>",
              "selectValues": "value",
              "valueProperty": "category",
              "key": "category",
              "type": "select",
              "input": true,
              "searchEnabled": true,
              "searchFields": [
                "value"
              ]
            }
          ],
          "width": 6,
          "offset": 0,
          "push": 0,
          "pull": 0
        },
        {
          "components": [
            {
              "label": "Instructors.Email",
              "labelPosition": "top",
              "spellcheck": true,
              "widget": {
                  "type": "input"
              },
              "key": "email",
              "type": "textfield",
              "input": true
            }
          ],
          "width": 6,
          "offset": 0,
          "push": 0,
          "pull": 0
        },
        {
          "components": [
            {
              "label": "Instructors.HasUser",
              "widget": "choicesjs",
              "data": {
                "values": [
                  {
                    "label": "Yes",
                    "value": 1
                  },
                  {
                    "label": "No",
                    "value": -1
                  }
                ]
              },
              "selectThreshold": 0.3,
              "validate": {
                "unique": false,
                "multiple": false
              },
              "key": "hasUser",
              "valueProperty": "value",
              "selectValues": "value",
              "type": "select",
              "input": true,
              "searchEnabled": false,
              "hideOnChildrenHidden": false,
              "disableLimit": false,
              "lazyLoad": false
            }
          ],
          "width": 2,
          "offset": 0,
          "push": 0,
          "pull": 0
        }
      ],
      "tableView": false,
      "key": "columns1",
      "type": "columns",
      "input": false,
      "path": "columns1"
    }
  ]
}
