{
  "title": "CourseExamClasses",
  "model": "CourseExamClasses",
  "searchExpression": "(indexof(id, '${text}') ge 0)",
  "columns": [
    {
      "name": "courseExam/course/displayCode",
      "property": "displayCode",
      "title": "Exams.DisplayCode"
    },
    {
      "name": "courseExam/name",
      "property": "title",
      "title": "Exams.ExamName"
    },
    {
      "name": "courseExam/year/alternateName",
      "property": "year",
      "title": "Exams.Year"
    },
    {
      "name": "courseExam/examPeriod/name",
      "property": "examPeriod",
      "title": "Exams.Period"
    },
    {
      "name": "courseExam/numberOfGradedStudents",
      "property": "numberOfGradedStudents",
      "title": "Exams.NumberOfGradedStudents"
    },
    {
      "name": "courseExam/status/alternateName",
      "property": "status",
      "title": "Exams.Status",
      "formatter": "TranslationFormatter",
      "formatString": "ExamStatus.${value.toLowerCase()}"
    },
    {
      "name": "courseExam/dateCompleted",
      "property": "dateCompleted",
      "title": "Exams.DateCompleted",
      "formatter": "DateTimeFormatter",
      "formatString": "shortDate"
    },
    {
      "name": "courseExam/completedByUser/name",
      "property": "completedByUser",
      "title": "Exams.CompletedByUser"
    },
    {
      "name": "courseExam/id",
      "property": "examId",
      "formatter": "ButtonFormatter",
      "formatString": "#/exams/${examId}/",
      "className": "text-center",
      "formatOptions": {
        "buttonContent": "<i class=\"far fa-eye text-indigo\"></i>",
        "buttonClass": "btn btn-default"
      }
    }
  ],
  "defaults":{
    "filter": "(courseExam/course/department eq ${currentDepartment})",
    "orderBy": "courseExam/year desc,courseExam/examPeriod desc,courseExam/name asc"
  }
  
}
