{
    "model": "RequestPartTimeProgramActions",
    "title": "Student part time request",
    "settings": {
      "i18n": {
        "el": {
          "Student part time request": "Αίτηση ένταξης σε πρόγραμμα μερικής φοίτησης",
          "Use this field if you want to note something more about the request on behalf of the student":"Χρησιμοποιήστε το πεδίο αυτό για να δηλώσετε κάτι επιπλέον σχετικά με την αίτηση εκ μέρους του φοιτητή",
          "Request Title": "Τίτλος Αίτησης",
          "Notes": "Σχόλια",
          "The number of periods you are applying for part-time study": " Ο αριθμός των περιόδων μερικής φοίτησης",
          "Periods": "Περίοδοι",
          "Academic period": "Ακαδημαϊκή περίοδος",
          "Part-time request is available only if the student's study program is connected to a part-time study program": "Η αίτηση ένταξης σε πρόγραμμα μερικής φοίτησης είναι δυνατή μόνο αν το πρόγραμμα σπουδών του/της φοιτητή/τριας είναι συνδεδεμένο με πρόγραμμα μερικής φοίτησης.",
"Part-time study program": "Πρόγραμμα μερικής φοίτησης"
        }
      }
    },
    "components": [
      {
        "type": "fieldset",
        "components": [
          {
            "columns": [
              {
                "components": [
                  {
                    "label": "Student Number",
                    "key": "student.studentIdentifier",
                    "labelPosition": "top",
                    "type": "number",
                    "input": true,
                    "disabled": true,
                    "validate": {
                      "required": false
                    }
                  }
                ],
                "width": 4,
                "offset": 0,
                "push": 0,
                "pull": 0
              },
              {
                "components": [
                  {
                    "label": "Given Name",
                    "key": "student.person.givenName",
                    "labelPosition": "top",
                    "dataSrc": "url",
                    "disabled": true,
                    "widget": {
                      "type": "input"
                    },
                    "validate": {
                      "required": false
                    },
                    "type": "textfield",
                    "input": true
                  }
                ],
                "width": 4,
                "offset": 0,
                "push": 0,
                "pull": 0
              },
              {
                "components": [
                  {
                    "label": "Family Name",
                    "labelPosition": "top",
                    "widget": "choicesjs",
                    "disabled": true,
                    "dataSrc": "url",
                    "selectValues": "value",
                    "key": "student.person.familyName",
                    "type": "textfield",
                    "input": true,
                    "validate": {
                      "required": false
                    }
                  }
                ],
                "width": 4,
                "offset": 0,
                "push": 0,
                "pull": 0
              },
              {
                "components": [
                  {
                    "label": "Request Title",
                    "labelPosition": "top",
                    "widget": {
                      "type": "input"
                    },
                    "validate": {
                      "required": true
                    },
                    "key": "name",
                    "type": "textfield",
                    "input": true,
                    "disabled": false
                  }
                ],
                "width": 12
              },
              {
                "components": [
                  {
                    "label": "Academic Year",
                    "labelPosition": "top",
                    "key": "academicYear",
                    "type": "select",
                    "searchEnabled": true,
                    "dataSrc": "url",
                    "data": {
                      "url": "AcademicYears?$top={{limit}}&$skip={{skip}}&$orderby=id desc",
                      "headers": []
                    },
                    "limit": 20,
                    "template": "{{ item.alternateName }}",
                    "input": true,
                    "lazyLoad": false,
                    "selectValues": "value",
                    "disabled": true,
                    "widget": "choicesjs",
                    "validate": {
                      "required": false
                    }
                  }
                ],
                "width": 3
              },
              {
                "components": [
                  {
                    "label": "Academic period",
                    "labelPosition": "top",
                    "widget": "choicesjs",
                    "dataSrc": "url",
                    "data": {
                      "url": "AcademicPeriods",
                      "headers": []
                    },
                    "template": "{{ item.name }}",
                    "selectValues": "value",
                    "key": "academicPeriod.name",
                    "type": "select",
                    "input": true,
                    "disabled": true,
                    "searchEnabled": false,
                    "validate": {
                      "required": false
                    }
                  }
                ],
                "width": 3
              },
              {
                "components": [
                  {
                    "label": "Category",
                    "labelPosition": "top",
                    "widget": "choicesjs",
                    "dataSrc": "url",
                    "data": {
                      "url": "PartTimeCategories"
                    },
                    "template": "{{ item.name }}",
                    "selectValues": "value",
                    "key": "partTimeCategory",
                    "type": "select",
                    "input": true,
                    "searchEnabled": false,
                    "validate": {
                      "required": true
                    }
                  }
                ],
                "width": 3
              },
              {
                "components": [
                  {
                    "label": "Periods",
                    "key": "periods",
                    "labelPosition": "top",
                    "validate": {
                      "required": true,
                      "min": 1,
                      "max": 2
                    },
                    "input": true,
                    "type": "number",
                    "clearOnRefresh": true,
                    "disabled": false,
                    "description": "The number of periods you are applying for part-time study"
                  }
                ],
                "width": 6,
                "offset": 0,
                "push": 0,
                "pull": 0
              },
              {
                "components": [
                  {
                    "label": "Part-time study program",
                    "labelPosition": "top",
                    "widget": "choicesjs",
                    "key": "studyProgram",
                    "dataSrc": "url",
                    "validate": {
                      "required": true
                    },
                    "data": {
                      "url": "StudyPrograms?$top=-1&$skip=0&$filter=id eq {{data?.student?.studyProgram}}&$select=info/partTimeStudyProgram/name as name,info/partTimeStudyProgram/id as id",
                      "headers": []
                    },
                    "template": "{{ item.name }}",
                    "selectValues": "value",
                    "valueProperty": "id",
                    "type": "select",
                    "input": true,
                    "disabled": false,
                    "lazyLoad": false,
                    "searchEnabled": false,
                    "customConditional": "show = !!(data.student && data.student.studyProgram);",
                    "description": "Part-time request is available only if the student's study program is connected to a part-time study program"
                  }
                ],
                "width": 6
              },
              {
                "components": [
                  {
                    "label": "Notes",
                    "labelPosition": "top",
                    "widget": {
                      "type": "input"
                    },
                    "validate": {
                      "required": false
                    },
                    "key": "description",
                    "type": "textarea",
                    "input": true,
                    "description": "Use this field if you want to note something more about the request on behalf of the student"
                  }
                ],
                "width": 12
              },
              {
                "components": [
                  {
                    "label": "Action Status",
                    "labelPosition": "top",
                    "dataSrc": "url",
                    "data": {
                      "url": "ActionStatusTypes",
                      "headers": []
                    },
                    "template": "{{ item.name }}",
                    "key": "actionStatus",
                    "type": "select",
                    "input": true,
                    "selectValues": "value",
                    "widget": "choicesjs",
                    "searchEnabled": false,
                    "validate": {
                      "required": false
                    },
                    "disabled": true,
                    "valueProperty": "id",
                    "lazyLoad": false,
                    "hidden": true
                  }
                ],
                "width": 12
              }
            ],
            "customClass": "text-dark",
            "hideLabel": true,
            "type": "columns",
            "input": false
          }
        ]
      },
      {
        "type": "button",
        "label": "Submit",
        "key": "submit",
        "disableOnInvalid": true,
        "input": true
      }
    ],
    "width": 3
  }
